# Blender v2.81 (sub 16) OBJ File: ''
# www.blender.org
mtllib Sphere.mtl
o Circle
v 0.000000 0.000000 -1.000000
v -0.010291 -0.194819 -0.980785
v -0.020186 -0.382151 -0.923880
v -0.029306 -0.554797 -0.831470
v -0.037300 -0.706122 -0.707107
v -0.043860 -0.830312 -0.555570
v -0.048734 -0.922593 -0.382683
v -0.051736 -0.979420 -0.195090
v -0.052750 -0.998608 -0.000000
v -0.051736 -0.979420 0.195090
v -0.048734 -0.922593 0.382683
v -0.043860 -0.830312 0.555570
v -0.037300 -0.706122 0.707107
v -0.029306 -0.554797 0.831470
v -0.020186 -0.382151 0.923880
v -0.010291 -0.194818 0.980785
v 0.000000 0.000000 1.000000
v 0.010291 0.194819 0.980785
v 0.020186 0.382151 0.923879
v 0.029306 0.554797 0.831469
v 0.037300 0.706123 0.707106
v 0.043860 0.830312 0.555570
v 0.048734 0.922594 0.382683
v 0.051736 0.979420 0.195089
v 0.052750 0.998608 -0.000001
v 0.051736 0.979420 -0.195091
v 0.048734 0.922593 -0.382684
v 0.043860 0.830311 -0.555571
v 0.037300 0.706121 -0.707108
v 0.029306 0.554796 -0.831470
v 0.020186 0.382149 -0.923880
v 0.010291 0.194817 -0.980786
l 2 1
l 3 2
l 4 3
l 5 4
l 6 5
l 7 6
l 8 7
l 9 8
l 10 9
l 11 10
l 12 11
l 13 12
l 14 13
l 15 14
l 16 15
l 17 16
l 18 17
l 19 18
l 20 19
l 21 20
l 22 21
l 23 22
l 24 23
l 25 24
l 26 25
l 27 26
l 28 27
l 29 28
l 30 29
l 31 30
l 32 31
l 1 32
o Circle.001
v -0.000000 -0.245342 -0.301846
v 0.046058 -0.287428 -0.258006
v 0.090347 -0.318468 -0.204252
v 0.131163 -0.337270 -0.142648
v 0.166939 -0.343111 -0.075563
v 0.196300 -0.335766 -0.005573
v 0.218117 -0.315518 0.064630
v 0.231551 -0.283145 0.132350
v 0.236088 -0.239890 0.194984
v 0.231551 -0.187417 0.250124
v 0.218117 -0.127742 0.295653
v 0.196300 -0.063157 0.329820
v 0.166939 0.003855 0.351312
v 0.131163 0.070718 0.359303
v 0.090347 0.134864 0.353486
v 0.046058 0.193827 0.334085
v -0.000000 0.245342 0.301846
v -0.046059 0.287428 0.258006
v -0.090347 0.318468 0.204252
v -0.131163 0.337270 0.142648
v -0.166939 0.343111 0.075563
v -0.196300 0.335766 0.005573
v -0.218117 0.315518 -0.064630
v -0.231551 0.283144 -0.132350
v -0.236088 0.239890 -0.194984
v -0.231551 0.187417 -0.250125
v -0.218117 0.127741 -0.295653
v -0.196300 0.063156 -0.329820
v -0.166939 -0.003855 -0.351312
v -0.131163 -0.070719 -0.359303
v -0.090347 -0.134865 -0.353486
v -0.046058 -0.193828 -0.334085
l 34 33
l 35 34
l 36 35
l 37 36
l 38 37
l 39 38
l 40 39
l 41 40
l 42 41
l 43 42
l 44 43
l 45 44
l 46 45
l 47 46
l 48 47
l 49 48
l 50 49
l 51 50
l 52 51
l 53 52
l 54 53
l 55 54
l 56 55
l 57 56
l 58 57
l 59 58
l 60 59
l 61 60
l 62 61
l 63 62
l 64 63
l 33 64
o Circle.002
v 0.000000 -0.243251 -0.299274
v -0.057582 -0.276157 -0.262979
v -0.112951 -0.298451 -0.216577
v -0.163980 -0.309275 -0.161852
v -0.208707 -0.308213 -0.100908
v -0.245413 -0.295308 -0.036085
v -0.272688 -0.271053 0.030124
v -0.289484 -0.236383 0.095175
v -0.295156 -0.192628 0.156569
v -0.289484 -0.141471 0.211946
v -0.272688 -0.084877 0.259178
v -0.245413 -0.025021 0.296450
v -0.208707 0.035796 0.322330
v -0.163980 0.095238 0.335822
v -0.112951 0.151019 0.336410
v -0.057582 0.200998 0.324069
v 0.000000 0.243251 0.299274
v 0.057582 0.276157 0.262978
v 0.112951 0.298451 0.216577
v 0.163980 0.309275 0.161852
v 0.208707 0.308213 0.100908
v 0.245413 0.295308 0.036085
v 0.272688 0.271053 -0.030124
v 0.289484 0.236383 -0.095175
v 0.295156 0.192628 -0.156569
v 0.289484 0.141470 -0.211946
v 0.272688 0.084877 -0.259178
v 0.245413 0.025021 -0.296450
v 0.208706 -0.035796 -0.322330
v 0.163979 -0.095238 -0.335822
v 0.112951 -0.151020 -0.336410
v 0.057582 -0.200998 -0.324069
l 66 65
l 67 66
l 68 67
l 69 68
l 70 69
l 71 70
l 72 71
l 73 72
l 74 73
l 75 74
l 76 75
l 77 76
l 78 77
l 79 78
l 80 79
l 81 80
l 82 81
l 83 82
l 84 83
l 85 84
l 86 85
l 87 86
l 88 87
l 89 88
l 90 89
l 91 90
l 92 91
l 93 92
l 94 93
l 95 94
l 96 95
l 65 96
o Circle.003
v 0.000000 0.305381 -0.236072
v -0.075303 0.299514 -0.231535
v -0.147712 0.282136 -0.218102
v -0.214444 0.253915 -0.196286
v -0.272936 0.215937 -0.166928
v -0.320938 0.169661 -0.131154
v -0.356607 0.116864 -0.090341
v -0.378572 0.059577 -0.046055
v -0.385989 0.000000 -0.000000
v -0.378572 -0.059577 0.046055
v -0.356607 -0.116864 0.090341
v -0.320938 -0.169661 0.131154
v -0.272936 -0.215937 0.166928
v -0.214444 -0.253915 0.196286
v -0.147712 -0.282136 0.218102
v -0.075303 -0.299514 0.231535
v 0.000000 -0.305381 0.236072
v 0.075303 -0.299514 0.231535
v 0.147712 -0.282136 0.218102
v 0.214444 -0.253915 0.196286
v 0.272936 -0.215937 0.166928
v 0.320938 -0.169661 0.131154
v 0.356608 -0.116864 0.090340
v 0.378573 -0.059577 0.046055
v 0.385989 0.000000 -0.000000
v 0.378572 0.059577 -0.046056
v 0.356607 0.116865 -0.090341
v 0.320938 0.169661 -0.131155
v 0.272935 0.215938 -0.166928
v 0.214444 0.253916 -0.196286
v 0.147711 0.282136 -0.218102
v 0.075302 0.299514 -0.231536
l 98 97
l 99 98
l 100 99
l 101 100
l 102 101
l 103 102
l 104 103
l 105 104
l 106 105
l 107 106
l 108 107
l 109 108
l 110 109
l 111 110
l 112 111
l 113 112
l 114 113
l 115 114
l 116 115
l 117 116
l 118 117
l 119 118
l 120 119
l 121 120
l 122 121
l 123 122
l 124 123
l 125 124
l 126 125
l 127 126
l 128 127
l 97 128
o Circle.004
v 0.000000 -0.999959 -0.009100
v -0.195090 -0.980745 -0.008925
v -0.382683 -0.923841 -0.008408
v -0.555570 -0.831435 -0.007567
v -0.707107 -0.707078 -0.006435
v -0.831470 -0.555547 -0.005056
v -0.923880 -0.382668 -0.003483
v -0.980785 -0.195082 -0.001775
v -1.000000 -0.000000 -0.000000
v -0.980785 0.195082 0.001775
v -0.923880 0.382667 0.003483
v -0.831470 0.555547 0.005056
v -0.707107 0.707078 0.006435
v -0.555570 0.831435 0.007567
v -0.382683 0.923841 0.008408
v -0.195090 0.980745 0.008925
v 0.000000 0.999959 0.009100
v 0.195091 0.980745 0.008925
v 0.382684 0.923841 0.008408
v 0.555571 0.831435 0.007567
v 0.707107 0.707077 0.006435
v 0.831470 0.555547 0.005056
v 0.923880 0.382667 0.003483
v 0.980785 0.195081 0.001775
v 1.000000 -0.000001 -0.000000
v 0.980785 -0.195083 -0.001775
v 0.923879 -0.382669 -0.003483
v 0.831469 -0.555548 -0.005056
v 0.707106 -0.707078 -0.006435
v 0.555569 -0.831436 -0.007567
v 0.382682 -0.923842 -0.008408
v 0.195089 -0.980745 -0.008925
l 130 129
l 131 130
l 132 131
l 133 132
l 134 133
l 135 134
l 136 135
l 137 136
l 138 137
l 139 138
l 140 139
l 141 140
l 142 141
l 143 142
l 144 143
l 145 144
l 146 145
l 147 146
l 148 147
l 149 148
l 150 149
l 151 150
l 152 151
l 153 152
l 154 153
l 155 154
l 156 155
l 157 156
l 158 157
l 159 158
l 160 159
l 129 160
o Circle.005
v 0.000000 0.000000 -1.000000
v -0.195090 0.000000 -0.980785
v -0.382683 0.000000 -0.923880
v -0.555570 0.000000 -0.831470
v -0.707107 0.000000 -0.707107
v -0.831470 0.000000 -0.555570
v -0.923880 0.000000 -0.382683
v -0.980785 0.000000 -0.195090
v -1.000000 0.000000 -0.000000
v -0.980785 0.000000 0.195090
v -0.923880 0.000000 0.382683
v -0.831470 0.000000 0.555570
v -0.707107 0.000000 0.707107
v -0.555570 0.000000 0.831470
v -0.382683 0.000000 0.923880
v -0.195090 0.000000 0.980785
v 0.000000 0.000000 1.000000
v 0.195091 0.000000 0.980785
v 0.382684 0.000000 0.923879
v 0.555571 0.000000 0.831469
v 0.707107 0.000000 0.707106
v 0.831470 0.000000 0.555570
v 0.923880 0.000000 0.382683
v 0.980785 0.000000 0.195089
v 1.000000 0.000000 -0.000001
v 0.980785 0.000000 -0.195091
v 0.923879 0.000000 -0.382684
v 0.831469 0.000000 -0.555571
v 0.707106 0.000000 -0.707108
v 0.555569 0.000000 -0.831470
v 0.382682 0.000000 -0.923880
v 0.195089 0.000000 -0.980786
l 162 161
l 163 162
l 164 163
l 165 164
l 166 165
l 167 166
l 168 167
l 169 168
l 170 169
l 171 170
l 172 171
l 173 172
l 174 173
l 175 174
l 176 175
l 177 176
l 178 177
l 179 178
l 180 179
l 181 180
l 182 181
l 183 182
l 184 183
l 185 184
l 186 185
l 187 186
l 188 187
l 189 188
l 190 189
l 191 190
l 192 191
l 161 192
